Week 3 Assignment
…
2025-01-13

Step 1 - Import Data

NYPD Shooting Incident Data

Our first step will be importing the NYPD Shooting Incident Data. This dataset has been compiled by the Office of Management Analysis and Planning each quarter since 2006. Each record in the dataset represents a shooting incident and includes details, such as location, time of day, and suspect/victim demographics. The dataset is made publicly available on the data.gov website, where we will directly source it in CSV format using the tidyverse library. We will be using the ggplot2 library later to visualize our data, so lets go ahead and import that now too to be tidy.

library(ggplot2)
library(tidyverse)
data_url <- "https://data.cityofnewyork.us/api/views/833y-fsy8/rows.csv?accessType=DOWNLOAD"
incident_data_raw <- read_csv(data_url)
incident_data_raw

## # A tibble: 28,562 x 21
##    INCIDENT_KEY OCCUR_DATE OCCUR_TIME BORO     LOC_OF_OCCUR_DESC PRECINCT
##           <dbl> <chr>      <time>     <chr>    <chr>                <dbl>
##  1    231974218 08/09/2021 01:06      BRONX    <NA>                    40
##  2    177934247 04/07/2018 19:48      BROOKLYN <NA>                    79
##  3    255028563 12/02/2022 22:57      BRONX    OUTSIDE                 47
##  4     25384540 11/19/2006 01:50      BROOKLYN <NA>                    66
##  5     72616285 05/09/2010 01:58      BRONX    <NA>                    46
##  6     85875439 07/22/2012 21:35      BRONX    <NA>                    42
##  7     79780323 07/12/2011 22:26      BROOKLYN <NA>                    71
##  8     85744504 07/14/2012 23:45      BROOKLYN <NA>                    69
##  9    142324890 04/21/2015 15:36      BROOKLYN <NA>                    75
## 10    152868707 05/07/2016 15:23      BROOKLYN <NA>                    69
## #  with 28,552 more rows, and 15 more variables: JURISDICTION_CODE <dbl>,
## #   LOC_CLASSFCTN_DESC <chr>, LOCATION_DESC <chr>,
## #   STATISTICAL_MURDER_FLAG <lgl>, PERP_AGE_GROUP <chr>, PERP_SEX <chr>,
## #   PERP_RACE <chr>, VIC_AGE_GROUP <chr>, VIC_SEX <chr>, VIC_RACE <chr>,
## #   X_COORD_CD <dbl>, Y_COORD_CD <dbl>, Latitude <dbl>, Longitude <dbl>,
## #   Lon_Lat <chr>
…
